[
    {
      "color": "green",
      "name": "LN2",
      "value": "8.3"
    },
    {
      "color": "green",
      "name": "Temperature A",
      "value": "-190.8"
    },   
    {
          "color": "yellow",
          "name": "Temperature B",
          "value": "-100.8"
    }
  ] 